{
    "version": 1,
    "default": "common/tax-abstract.html",
    "name": "Compte de Résultat",
    "inline": true,
    "unique": true,
    "usesReadyToPrint": true,
    "id": "com.caseware.fr.e.audit.fr.customForms.COMPTE",
    "js": ["COMPTE-formdata.js", "COMPTE-calculations.js", "COMPTE-diagnostics.js", "COMPTE-tables.js"]
   }