{
  "pluginGuid": "4b521c32-2bb3-11e8-b467-0ed5f89f718b",
  "javascriptUrl": "/prod/com.caseware.fr.e.audit.fr.1/collaborate.js",
  "sentenceCasedName": {
    "names": {
      "en-US": "Audit France Cloud"
    }
  },
  "pluralName": {
    "names": {
      "en-US": "Audit France Cloud"
    }
  },
  "icon": "com.caseware.fr.e.audit.fr.1.png",
  "startingActionId": 9200,
  "relationshipTypes": [
    {
      "relationshipTypeName": "Preparer"
    },
    {
      "relationshipTypeName": "Reviewer"
    }
  ],
  "workflow": {
    "id": "708b9762-2bb3-11e8-b467-0ed5f89f718b",
    "name": "FR Audit France Cloud Workflow",
    "description": "The workflow used for Audit France Cloud Engagements.",
    "workflowStages": [
      {
        "key": "CREATED",
        "stageName": "Créé",
        "description": "Initial stage: Created",
        "displayColor": "A8EFA8",
        "triggers": [
          {
            "toStage": "INPROGRESS",
            "condition": "NEW_ACCOUNT"
          },
          {
            "toStage": "WAITING",
            "condition": "QUERY_OPEN"
          },
          {
            "toStage": "ACQUIRED",
            "condition": "QUERY_RESPONDED"
          }
        ]
      },
      {
        "key": "ACCEPTED",
        "stageName": "Acceptation",
        "description": "Second stage: Pre-Audit Complete",
        "displayColor": "1EAD1E",
        "triggers": [
          {
            "toStage": "INPROGRESS",
            "condition": "NEW_ACCOUNT"
          },
          {
            "toStage": "WAITING",
            "condition": "QUERY_OPEN"
          },
          {
            "toStage": "ACQUIRED",
            "condition": "QUERY_RESPONDED"
          }
        ]
      },
      {
        "key": "INPROGRESS",
        "stageName": "En cours",
        "description": "Third stage: In Progress",
        "displayColor": "0078A9",
        "triggers": [
          {
            "toStage": "WAITING",
            "condition": "QUERY_OPEN"
          },
          {
            "toStage": "ACQUIRED",
            "condition": "QUERY_RESPONDED"
          }
        ]
      },
      {
        "key": "WAITING",
        "stageName": "En attente",
        "description": "Fourth stage: Waiting on Queries",
        "displayColor": "D87F26",
        "triggers": [
          {
            "toStage": "ACQUIRED",
            "condition": "QUERY_RESPONDED"
          },
          {
            "toStage": "INPROGRESS",
            "condition": "QUERY_COMPLETE"
          }
        ]
      },
      {
        "key": "ACQUIRED",
        "stageName": "Réponses reçues",
        "description": "Fifth stage: Queries Completed",
        "displayColor": "254383",
        "triggers": [
          {
            "toStage": "WAITING",
            "condition": "QUERY_OPEN"
          },
          {
            "toStage": "INPROGRESS",
            "condition": "QUERY_COMPLETE"
          }
        ]
      },
      {
        "key": "READY",
        "stageName": "Prêt pour revue",
        "description": "Sixth stage: Ready for Manager Review",
        "displayColor": "C4A006"
      },
      {
        "key": "REVIEWED",
        "stageName": "Complété",
        "description": "Seventh stage: Reviewed",
        "displayColor": "AD1EAD",
        "requiresRole": "Final Review"
      },
      {
        "key": "COMPLETED",
        "stageName": "Terminé",
        "description": "Last stage: Completed",
        "displayColor": "4C1682"
      }
    ]
  },
  "viewColumnMasters": [
    {
      "sequence": 1,
      "name": "YearEndDate",
      "context": "04D42338-445B-4216-B522-279F285D8D9E",
      "header": "Year End",
      "defaultWidth": 150,
      "storageType": "DateTime",
      "fieldType": "Date"
    },
    {
      "sequence": 2,
      "name": "LastAccessedDate",
      "context": "04D42338-445B-4216-B522-279F285D8D9E",
      "header": "Last Accessed Date",
      "defaultWidth": 150,
      "storageType": "DateTime",
      "fieldType": "Date"
    },
    {
      "sequence": 3,
      "name": "Number",
      "context": "04D42338-445B-4216-B522-279F285D8D9E",
      "header": "Job Number",
      "defaultWidth": 100,
      "storageType": "String",
      "fieldType": "String"
    },
    {
      "sequence": 4,
      "name": "Queries",
      "header": "Open Queries",
      "defaultWidth": 100,
      "storageType": "String",
      "fieldType": "String"
    }
  ],
  "views": [
    {
      "name": "Vue Mission Audit France Cloud",
      "description": "Shows Audit France Cloud Engagement information.",
      "visibleToStaff": true,
      "defaultForStaff": true,
      "columns": [
        {
          "sequence": 1,
          "name": "Icon",
          "width": 32,
          "isBuiltInColumn": true
        },
        {
          "sequence": 2,
          "name": "AllowContacts",
          "width": 32,
          "isBuiltInColumn": true
        },
        {
          "sequence": 3,
          "name": "WorkflowStageColor",
          "width": 32,
          "isBuiltInColumn": true
        },
        {
          "sequence": 4,
          "name": "Name",
          "width": 32,
          "isBuiltInColumn": true,
          "autoExpand": true
        },
        {
          "sequence": 5,
          "name": "EntityName",
          "width": 100,
          "isBuiltInColumn": true
        },
        {
          "sequence": 6,
          "name": "CreatedDate",
          "width": 100,
          "isBuiltInColumn": true
        },
        {
          "sequence": 7,
          "name": "EnteredWorkflowStage",
          "width": 100,
          "isBuiltInColumn": true,
          "sortSequence": 1,
          "sortDirection": "Ascending"
        },
        {
          "sequence": 8,
          "name": "Queries",
          "width": 75
        }
      ]
    },
    {
      "name": "Vue affectation collaborateurs",
      "description": "Shows staff assignment information.",
      "visibleToStaff": true,
      "columns": [
        {
          "sequence": 1,
          "name": "Icon",
          "width": 32,
          "isBuiltInColumn": true
        },
        {
          "sequence": 2,
          "name": "AllowContacts",
          "width": 32,
          "isBuiltInColumn": true
        },
        {
          "sequence": 3,
          "name": "Name",
          "width": 32,
          "isBuiltInColumn": true,
          "autoExpand": true
        },
        {
          "sequence": 4,
          "name": "WorkflowStageColor",
          "width": 32,
          "isBuiltInColumn": true
        },
        {
          "sequence": 5,
          "name": "WorkflowStageName",
          "width": 100,
          "isBuiltInColumn": true
        },
        {
          "sequence": 6,
          "name": "EnteredWorkflowStage",
          "width": 100,
          "isBuiltInColumn": true,
          "sortSequence": 1,
          "sortDirection": "Ascending"
        },
        {
          "sequence": 7,
          "name": "DD44D28F-C038-41FD-9A8B-8C2EE92C652A",
          "width": 100,
          "context": "268AEAC8-43BF-4DCA-85BA-2C278A2E2CDA",
          "header": "Preparer"
        },
        {
          "sequence": 8,
          "name": "6A26A9DF-FEE5-4D1F-9C99-4B136E813FB2",
          "width": 100,
          "context": "268AEAC8-43BF-4DCA-85BA-2C278A2E2CDA",
          "header": "Reviewer"
        }
      ]
    },
    {
      "name": "Vue Info Mission Audit France Cloud",
      "description": "Shows Audit France Cloud Engagement information.",
      "visibleToContact": true,
      "defaultForContact": true,
      "columns": [
        {
          "sequence": 1,
          "name": "Icon",
          "width": 32,
          "isBuiltInColumn": true
        },
        {
          "sequence": 2,
          "name": "AllowContacts",
          "width": 32,
          "isBuiltInColumn": true
        },
        {
          "sequence": 3,
          "name": "WorkflowStageColor",
          "width": 32,
          "isBuiltInColumn": true
        },
        {
          "sequence": 4,
          "name": "Name",
          "width": 32,
          "isBuiltInColumn": true,
          "autoExpand": true
        },
        {
          "sequence": 5,
          "name": "Queries",
          "width": 75
        },
        {
          "sequence": 6,
          "name": "EnteredWorkflowStage",
          "width": 100,
          "isBuiltInColumn": true,
          "sortSequence": 1,
          "sortDirection": "Ascending"
        }
      ]
    }
  ],
  "engagementType": "Audit"
}
